{
	"id": "5feb1acd-c8da-4bc4-bc6e-181f937fbd49",
	"name": "DWT Environment",
	"values": [
		{
			"key": "Token",
			"value": "",
			"enabled": true
		}
	],
	"_postman_variable_scope": "environment",
	"_postman_exported_at": "2019-11-21T13:52:40.213Z",
	"_postman_exported_using": "Postman/7.12.0"
}